[
    {
        "id": "71b25043.53434",
        "type": "tab",
        "label": "api",
        "disabled": false,
        "info": ""
    },
    {
        "id": "8c7ebdfc.ed42c",
        "type": "tab",
        "label": "modbus ai",
        "disabled": false,
        "info": ""
    },
    {
        "id": "a77ea316.764ff",
        "type": "tab",
        "label": "Line notify",
        "disabled": false,
        "info": ""
    },
    {
        "id": "926eacb5.ddf63",
        "type": "tab",
        "label": "create .csv to usb",
        "disabled": false,
        "info": ""
    },
    {
        "id": "dc8873ce.d9a9f",
        "type": "ui_base",
        "theme": {
            "name": "theme-light",
            "lightTheme": {
                "default": "#0094CE",
                "baseColor": "#ffffff",
                "baseFont": "-apple-system,BlinkMacSystemFont,Segoe UI,Roboto,Oxygen-Sans,Ubuntu,Cantarell,Helvetica Neue,sans-serif",
                "edited": true,
                "reset": false
            },
            "darkTheme": {
                "default": "#097479",
                "baseColor": "#ffffff",
                "baseFont": "Arial Black,Arial Black,Gadget,sans-serif",
                "edited": false,
                "reset": false
            },
            "customTheme": {
                "name": "Untitled Theme 1",
                "default": "#4B7930",
                "baseColor": "#4B7930",
                "baseFont": "-apple-system,BlinkMacSystemFont,Segoe UI,Roboto,Oxygen-Sans,Ubuntu,Cantarell,Helvetica Neue,sans-serif"
            },
            "themeState": {
                "base-color": {
                    "default": "#0094CE",
                    "value": "#ffffff",
                    "edited": true
                },
                "page-titlebar-backgroundColor": {
                    "value": "#ffffff",
                    "edited": false
                },
                "page-backgroundColor": {
                    "value": "#fafafa",
                    "edited": false
                },
                "page-sidebar-backgroundColor": {
                    "value": "#ffffff",
                    "edited": false
                },
                "group-textColor": {
                    "value": "#ffffff",
                    "edited": false
                },
                "group-borderColor": {
                    "value": "#ffffff",
                    "edited": false
                },
                "group-backgroundColor": {
                    "value": "#ffffff",
                    "edited": false
                },
                "widget-textColor": {
                    "value": "#111111",
                    "edited": false
                },
                "widget-backgroundColor": {
                    "value": "#ffffff",
                    "edited": false
                },
                "widget-borderColor": {
                    "value": "#ffffff",
                    "edited": false
                },
                "base-font": {
                    "value": "-apple-system,BlinkMacSystemFont,Segoe UI,Roboto,Oxygen-Sans,Ubuntu,Cantarell,Helvetica Neue,sans-serif"
                }
            },
            "angularTheme": {
                "primary": "indigo",
                "accents": "blue",
                "warn": "red",
                "background": "grey"
            }
        },
        "site": {
            "name": "Node-RED Dashboard",
            "hideToolbar": "true",
            "allowSwipe": "false",
            "lockMenu": "false",
            "allowTempTheme": "true",
            "dateFormat": "DD/MM/YYYY",
            "sizes": {
                "sx": 40,
                "sy": 50,
                "gx": 6,
                "gy": 6,
                "cx": 6,
                "cy": 6,
                "px": 0,
                "py": 0
            }
        }
    },
    {
        "id": "1be09ecd.11be81",
        "type": "ui_group",
        "z": "",
        "name": "DATA",
        "tab": "",
        "disp": true,
        "width": "6",
        "collapse": false
    },
    {
        "id": "a91cf79c.941408",
        "type": "modbus-client",
        "z": "",
        "name": "MODBUS-RT9600",
        "clienttype": "serial",
        "bufferCommands": true,
        "stateLogEnabled": true,
        "tcpHost": "127.0.0.1",
        "tcpPort": "502",
        "tcpType": "DEFAULT",
        "serialPort": "/dev/ttyS0",
        "serialType": "RTU-BUFFERD",
        "serialBaudrate": "2400",
        "serialDatabits": "8",
        "serialStopbits": "1",
        "serialParity": "none",
        "serialConnectionDelay": "1000",
        "unit_id": "0",
        "commandDelay": "10",
        "clientTimeout": "1000",
        "reconnectTimeout": "1000"
    },
    {
        "id": "751f6fe4.04264",
        "type": "modbus-client",
        "z": "",
        "name": "serial rs485",
        "clienttype": "serial",
        "bufferCommands": true,
        "stateLogEnabled": false,
        "tcpHost": "127.0.0.1",
        "tcpPort": "502",
        "tcpType": "DEFAULT",
        "serialPort": "/dev/serial1",
        "serialType": "RTU-BUFFERD",
        "serialBaudrate": "9600",
        "serialDatabits": "8",
        "serialStopbits": "1",
        "serialParity": "none",
        "serialConnectionDelay": "100",
        "unit_id": "0",
        "commandDelay": "1",
        "clientTimeout": "1000",
        "reconnectTimeout": "200"
    },
    {
        "id": "3b18d286.5c46ae",
        "type": "ui_group",
        "z": "",
        "name": "TEST 485",
        "tab": "",
        "disp": true,
        "width": "6",
        "collapse": false
    },
    {
        "id": "e4ed8fdf.caf3",
        "type": "modbus-client",
        "z": "",
        "name": "serial rs485",
        "clienttype": "serial",
        "bufferCommands": true,
        "stateLogEnabled": false,
        "tcpHost": "127.0.0.1",
        "tcpPort": "502",
        "tcpType": "DEFAULT",
        "serialPort": "COM3",
        "serialType": "RTU-BUFFERD",
        "serialBaudrate": "9600",
        "serialDatabits": "8",
        "serialStopbits": "1",
        "serialParity": "none",
        "serialConnectionDelay": "100",
        "unit_id": "0",
        "commandDelay": "1",
        "clientTimeout": "1000",
        "reconnectTimeout": "2000"
    },
    {
        "id": "386cf2a6.8e9f8e",
        "type": "serial-port",
        "z": "",
        "serialport": "/dev/serial1",
        "serialbaud": "9600",
        "databits": "8",
        "parity": "none",
        "stopbits": "1",
        "newline": "50",
        "bin": "bin",
        "out": "time",
        "addchar": false,
        "responsetimeout": "10000"
    },
    {
        "id": "1348c0a.85275bf",
        "type": "mqtt-broker",
        "z": "",
        "name": "",
        "broker": "iot.eclipse.org",
        "port": "1883",
        "clientid": "",
        "usetls": false,
        "compatmode": true,
        "keepalive": "60",
        "cleansession": true,
        "birthTopic": "",
        "birthQos": "0",
        "birthRetain": "false",
        "birthPayload": "",
        "closeTopic": "",
        "closeQos": "0",
        "closeRetain": "false",
        "closePayload": "",
        "willTopic": "",
        "willQos": "0",
        "willRetain": "false",
        "willPayload": ""
    },
    {
        "id": "2b4ad5c3.fdf20a",
        "type": "modbus-client",
        "z": "",
        "name": "server",
        "clienttype": "tcp",
        "bufferCommands": true,
        "stateLogEnabled": false,
        "tcpHost": "192.168.2.110",
        "tcpPort": "502",
        "tcpType": "TPC-RTU-BUFFERED",
        "serialPort": "/dev/ttyUSB",
        "serialType": "RTU-BUFFERD",
        "serialBaudrate": "9600",
        "serialDatabits": "8",
        "serialStopbits": "1",
        "serialParity": "none",
        "serialConnectionDelay": "100",
        "unit_id": "1",
        "commandDelay": "1",
        "clientTimeout": "1000",
        "reconnectTimeout": "2000"
    },
    {
        "id": "165a26d7.299a29",
        "type": "mqtt-broker",
        "z": "",
        "name": "cloud",
        "broker": "35.247.238.249",
        "port": "1883",
        "clientid": "",
        "usetls": false,
        "compatmode": true,
        "keepalive": "60",
        "cleansession": true,
        "birthTopic": "",
        "birthQos": "0",
        "birthPayload": "",
        "closeTopic": "",
        "closeQos": "0",
        "closePayload": "",
        "willTopic": "",
        "willQos": "0",
        "willPayload": ""
    },
    {
        "id": "12a2c2d7.31075d",
        "type": "modbus-client",
        "z": "",
        "name": "",
        "clienttype": "serial",
        "bufferCommands": true,
        "stateLogEnabled": false,
        "tcpHost": "127.0.0.1",
        "tcpPort": "502",
        "tcpType": "DEFAULT",
        "serialPort": "/dev/ttyUSB0",
        "serialType": "RTU-BUFFERD",
        "serialBaudrate": "2400",
        "serialDatabits": "8",
        "serialStopbits": "1",
        "serialParity": "none",
        "serialConnectionDelay": "100",
        "unit_id": "1",
        "commandDelay": "1",
        "clientTimeout": "1000",
        "reconnectTimeout": "2000"
    },
    {
        "id": "b7e48c00.9fe8b",
        "type": "ui_group",
        "z": "",
        "name": "Nav-top",
        "tab": "",
        "order": 1,
        "disp": false,
        "width": "23",
        "collapse": false
    },
    {
        "id": "c1865dcb.acc86",
        "type": "ui_group",
        "z": "",
        "name": "Numbers",
        "tab": "",
        "order": 2,
        "disp": false,
        "width": "5",
        "collapse": false
    },
    {
        "id": "6827123d.23cacc",
        "type": "ui_group",
        "z": "",
        "name": "Chart",
        "tab": "",
        "order": 3,
        "disp": false,
        "width": "18",
        "collapse": false
    },
    {
        "id": "d1eafa6c.3dbba8",
        "type": "modbus-client",
        "z": "",
        "name": "",
        "clienttype": "serial",
        "bufferCommands": true,
        "stateLogEnabled": false,
        "tcpHost": "127.0.0.1",
        "tcpPort": "502",
        "tcpType": "DEFAULT",
        "serialPort": "COM14",
        "serialType": "RTU-BUFFERD",
        "serialBaudrate": "2400",
        "serialDatabits": "8",
        "serialStopbits": "1",
        "serialParity": "none",
        "serialConnectionDelay": "100",
        "unit_id": "0",
        "commandDelay": "1",
        "clientTimeout": "1000",
        "reconnectTimeout": "2000"
    },
    {
        "id": "e518ea0b.9dbac8",
        "type": "modbus-client",
        "z": "",
        "name": "Modbus Serial",
        "clienttype": "serial",
        "bufferCommands": true,
        "stateLogEnabled": false,
        "tcpHost": "127.0.0.1",
        "tcpPort": "502",
        "tcpType": "DEFAULT",
        "serialPort": "COM14",
        "serialType": "RTU-BUFFERD",
        "serialBaudrate": "2400",
        "serialDatabits": "8",
        "serialStopbits": "1",
        "serialParity": "none",
        "serialConnectionDelay": "100",
        "unit_id": 0,
        "commandDelay": 1,
        "clientTimeout": 2000,
        "reconnectTimeout": 1000
    },
    {
        "id": "38c6a419.3095cc",
        "type": "mqtt-broker",
        "z": "",
        "name": "cloud",
        "broker": "35.247.238.249",
        "port": "1883",
        "clientid": "",
        "usetls": false,
        "compatmode": true,
        "keepalive": "60",
        "cleansession": true,
        "birthTopic": "",
        "birthQos": "0",
        "birthPayload": "",
        "closeTopic": "",
        "closeQos": "0",
        "closePayload": "",
        "willTopic": "",
        "willQos": "0",
        "willPayload": ""
    },
    {
        "id": "ac936f9.be03c9",
        "type": "modbus-client",
        "z": "",
        "name": "DW06242019",
        "clienttype": "serial",
        "bufferCommands": true,
        "stateLogEnabled": false,
        "tcpHost": "127.0.0.1",
        "tcpPort": "502",
        "tcpType": "DEFAULT",
        "serialPort": "/dev/ttyUSB0",
        "serialType": "RTU-BUFFERD",
        "serialBaudrate": "9600",
        "serialDatabits": "8",
        "serialStopbits": "1",
        "serialParity": "none",
        "serialConnectionDelay": "100",
        "unit_id": "1",
        "commandDelay": "1",
        "clientTimeout": "1000",
        "reconnectTimeout": "1000"
    },
    {
        "id": "c92f971b.516988",
        "type": "modbus-client",
        "z": "",
        "name": "server",
        "clienttype": "tcp",
        "bufferCommands": true,
        "stateLogEnabled": false,
        "tcpHost": "192.168.2.110",
        "tcpPort": "502",
        "tcpType": "TPC-RTU-BUFFERED",
        "serialPort": "/dev/ttyUSB",
        "serialType": "RTU-BUFFERD",
        "serialBaudrate": "9600",
        "serialDatabits": "8",
        "serialStopbits": "1",
        "serialParity": "none",
        "serialConnectionDelay": "100",
        "unit_id": 2,
        "commandDelay": 1,
        "clientTimeout": 1000,
        "reconnectTimeout": 2000
    },
    {
        "id": "f6d0d06a.754fc",
        "type": "ui_group",
        "z": "",
        "name": "body",
        "tab": "",
        "order": 1,
        "disp": false,
        "width": "23",
        "collapse": false
    },
    {
        "id": "62cdb2bb.03065c",
        "type": "ui_group",
        "z": "",
        "name": "Chart",
        "tab": "",
        "order": 2,
        "disp": false,
        "width": "18",
        "collapse": false
    },
    {
        "id": "236fb209.830cce",
        "type": "ui_group",
        "z": "",
        "name": "temp",
        "tab": "",
        "order": 3,
        "disp": false,
        "width": "6",
        "collapse": false
    },
    {
        "id": "ec3131a3.cffe8",
        "type": "ui_group",
        "z": "",
        "name": "pH",
        "tab": "",
        "order": 4,
        "disp": false,
        "width": "6",
        "collapse": false
    },
    {
        "id": "e97f644c.598178",
        "type": "ui_group",
        "z": "",
        "name": "DO",
        "tab": "",
        "order": 5,
        "disp": false,
        "width": "6",
        "collapse": false
    },
    {
        "id": "7fedf0f5.c7611",
        "type": "ui_group",
        "z": "",
        "name": "EC",
        "tab": "",
        "order": 6,
        "disp": false,
        "width": "5",
        "collapse": false
    },
    {
        "id": "6663fde2.7be014",
        "type": "ui_group",
        "z": "",
        "name": "Turbidity",
        "tab": "",
        "order": 7,
        "disp": false,
        "width": "6",
        "collapse": false
    },
    {
        "id": "a1f3c971.599da8",
        "type": "ui_group",
        "z": "",
        "name": "Ammonium",
        "tab": "",
        "order": 8,
        "disp": false,
        "width": "6",
        "collapse": false
    },
    {
        "id": "9bb158b8.a66e38",
        "type": "ui_group",
        "z": "",
        "name": "TDS",
        "tab": "",
        "order": 9,
        "disp": false,
        "width": "6",
        "collapse": false
    },
    {
        "id": "8ddd936f.b061b",
        "type": "ui_group",
        "z": "",
        "name": "Salinity",
        "tab": "",
        "order": 10,
        "disp": false,
        "width": "5",
        "collapse": false
    },
    {
        "id": "385e925d.2c469e",
        "type": "ui_group",
        "z": "",
        "name": "Header",
        "tab": "",
        "order": 1,
        "disp": false,
        "width": "23",
        "collapse": false
    },
    {
        "id": "c2acaf2f.da2c2",
        "type": "ui_group",
        "z": "",
        "name": "body-1m",
        "tab": "",
        "order": 2,
        "disp": false,
        "width": "17",
        "collapse": false
    },
    {
        "id": "bf5c591f.33f518",
        "type": "ui_group",
        "z": "",
        "name": "body-5m",
        "tab": "",
        "order": 3,
        "disp": true,
        "width": "6",
        "collapse": false
    },
    {
        "id": "db88d804.f41808",
        "type": "ui_group",
        "z": "",
        "name": "body-1h",
        "tab": "",
        "order": 4,
        "disp": true,
        "width": "6",
        "collapse": false
    },
    {
        "id": "fc4fa5ad.7383d8",
        "type": "ui_group",
        "z": "",
        "name": "Temperature",
        "tab": "",
        "order": 1,
        "disp": false,
        "width": "6",
        "collapse": false
    },
    {
        "id": "47bc4495.bf111c",
        "type": "ui_group",
        "z": "",
        "name": "pH",
        "tab": "",
        "order": 2,
        "disp": false,
        "width": "6",
        "collapse": false
    },
    {
        "id": "291bcf26.a7cc1",
        "type": "ui_group",
        "z": "",
        "name": "DO",
        "tab": "",
        "order": 3,
        "disp": false,
        "width": "6",
        "collapse": false
    },
    {
        "id": "629dea19.120ff4",
        "type": "ui_group",
        "z": "",
        "name": "EC",
        "tab": "",
        "order": 4,
        "disp": false,
        "width": "5",
        "collapse": false
    },
    {
        "id": "db31e121.9491a",
        "type": "ui_group",
        "z": "",
        "name": "Turbidity",
        "tab": "",
        "order": 5,
        "disp": false,
        "width": "6",
        "collapse": false
    },
    {
        "id": "e3f0eab4.d589e8",
        "type": "ui_group",
        "z": "",
        "name": "Ammonium",
        "tab": "",
        "order": 6,
        "disp": false,
        "width": "6",
        "collapse": false
    },
    {
        "id": "94622559.b202f8",
        "type": "ui_group",
        "z": "",
        "name": "TDS",
        "tab": "",
        "order": 7,
        "disp": false,
        "width": "6",
        "collapse": false
    },
    {
        "id": "edabff34.846a6",
        "type": "ui_group",
        "z": "",
        "name": "Salinity",
        "tab": "",
        "order": 8,
        "disp": false,
        "width": "5",
        "collapse": false
    },
    {
        "id": "56e6cc5f.076f04",
        "type": "ui_group",
        "z": "",
        "name": "select",
        "tab": "",
        "order": 1,
        "disp": false,
        "width": "6",
        "collapse": false
    },
    {
        "id": "5aeb8f0b.0d3ea",
        "type": "ui_group",
        "z": "",
        "name": "DI1",
        "tab": "",
        "order": 1,
        "disp": false,
        "width": "16",
        "collapse": false
    },
    {
        "id": "346f94b1.03aa4c",
        "type": "ui_group",
        "z": "",
        "name": "DI2",
        "tab": "",
        "order": 2,
        "disp": false,
        "width": "16",
        "collapse": false
    },
    {
        "id": "62468e90.5d808",
        "type": "ui_group",
        "z": "",
        "name": "DI3",
        "tab": "",
        "order": 3,
        "disp": false,
        "width": "16",
        "collapse": false
    },
    {
        "id": "ebcc037b.de989",
        "type": "ui_group",
        "z": "",
        "name": "DI4",
        "tab": "",
        "order": 4,
        "disp": false,
        "width": "16",
        "collapse": false
    },
    {
        "id": "a7621a5e.2a4488",
        "type": "ui_group",
        "z": "",
        "name": "DI5",
        "tab": "",
        "order": 5,
        "disp": false,
        "width": "16",
        "collapse": false
    },
    {
        "id": "d1bbcb3a.5a2cf8",
        "type": "ui_group",
        "z": "",
        "name": "DI6",
        "tab": "",
        "order": 6,
        "disp": false,
        "width": "16",
        "collapse": false
    },
    {
        "id": "ac9dbbb4.dc0558",
        "type": "ui_group",
        "z": "",
        "name": "DI7",
        "tab": "",
        "order": 7,
        "disp": false,
        "width": "16",
        "collapse": false
    },
    {
        "id": "fdd79101.e5e6d",
        "type": "ui_group",
        "z": "",
        "name": "DI8",
        "tab": "",
        "order": 8,
        "disp": false,
        "width": "16",
        "collapse": false
    },
    {
        "id": "8c71f05f.626f9",
        "type": "ui_group",
        "z": "",
        "name": "pH",
        "tab": "",
        "order": 4,
        "disp": false,
        "width": "6",
        "collapse": false
    },
    {
        "id": "a752912.46cc17",
        "type": "ui_group",
        "z": "",
        "name": "DO",
        "tab": "",
        "order": 5,
        "disp": false,
        "width": "6",
        "collapse": false
    },
    {
        "id": "ed3b3cd6.9211f",
        "type": "ui_group",
        "z": "",
        "name": "EC",
        "tab": "",
        "order": 6,
        "disp": false,
        "width": "5",
        "collapse": false
    },
    {
        "id": "70965130.3fd89",
        "type": "ui_group",
        "z": "",
        "name": "Turbidity",
        "tab": "",
        "order": 7,
        "disp": false,
        "width": "6",
        "collapse": false
    },
    {
        "id": "8f77f426.263628",
        "type": "ui_group",
        "z": "",
        "name": "Ammonium",
        "tab": "",
        "order": 8,
        "disp": false,
        "width": "6",
        "collapse": false
    },
    {
        "id": "c69cb273.3434a",
        "type": "ui_group",
        "z": "",
        "name": "TDS",
        "tab": "",
        "order": 9,
        "disp": false,
        "width": "6",
        "collapse": false
    },
    {
        "id": "92cbafb6.aece9",
        "type": "ui_group",
        "z": "",
        "name": "Salinity",
        "tab": "",
        "order": 10,
        "disp": false,
        "width": "5",
        "collapse": false
    },
    {
        "id": "ffd91557.1c6c18",
        "type": "ui_group",
        "z": "",
        "name": "temp",
        "tab": "",
        "order": 3,
        "disp": false,
        "width": "6",
        "collapse": false
    },
    {
        "id": "32e8d4c0.c1c8fc",
        "type": "ui_group",
        "z": "",
        "name": "body",
        "tab": "",
        "order": 1,
        "disp": false,
        "width": "23",
        "collapse": false
    },
    {
        "id": "92ea18c0.249568",
        "type": "ui_group",
        "z": "",
        "name": "Header",
        "tab": "",
        "order": 1,
        "disp": false,
        "width": "23",
        "collapse": false
    },
    {
        "id": "1a5eb175.9dfbef",
        "type": "ui_group",
        "z": "",
        "name": "pH",
        "tab": "",
        "order": 2,
        "disp": false,
        "width": "6",
        "collapse": false
    },
    {
        "id": "e0dc8cd0.efe5f",
        "type": "ui_group",
        "z": "",
        "name": "DO",
        "tab": "",
        "order": 3,
        "disp": false,
        "width": "6",
        "collapse": false
    },
    {
        "id": "fdd2ea0e.a382b8",
        "type": "ui_group",
        "z": "",
        "name": "EC",
        "tab": "",
        "order": 4,
        "disp": false,
        "width": "5",
        "collapse": false
    },
    {
        "id": "82af273f.bfef88",
        "type": "ui_group",
        "z": "",
        "name": "Turbidity",
        "tab": "",
        "order": 5,
        "disp": false,
        "width": "6",
        "collapse": false
    },
    {
        "id": "682d582f.3927a8",
        "type": "ui_group",
        "z": "",
        "name": "Ammonium",
        "tab": "",
        "order": 6,
        "disp": false,
        "width": "6",
        "collapse": false
    },
    {
        "id": "fc98162c.37a0a8",
        "type": "ui_group",
        "z": "",
        "name": "TDS",
        "tab": "",
        "order": 7,
        "disp": false,
        "width": "6",
        "collapse": false
    },
    {
        "id": "50216989.d8ba68",
        "type": "ui_group",
        "z": "",
        "name": "Salinity",
        "tab": "",
        "order": 8,
        "disp": false,
        "width": "5",
        "collapse": false
    },
    {
        "id": "b6824e34.c04d6",
        "type": "ui_group",
        "z": "",
        "name": "body-1m",
        "tab": "",
        "order": 2,
        "disp": false,
        "width": "17",
        "collapse": false
    },
    {
        "id": "54252765.b8c218",
        "type": "ui_group",
        "z": "",
        "name": "select",
        "tab": "",
        "order": 1,
        "disp": false,
        "width": "6",
        "collapse": false
    },
    {
        "id": "5e326d79.ccb864",
        "type": "ui_group",
        "z": "",
        "name": "Temperature",
        "tab": "",
        "order": 1,
        "disp": false,
        "width": "6",
        "collapse": false
    },
    {
        "id": "39674467.a6af7c",
        "type": "ui_group",
        "z": "",
        "name": "DI1",
        "tab": "",
        "order": 1,
        "disp": false,
        "width": "16",
        "collapse": false
    },
    {
        "id": "1b6662f9.4b8a1d",
        "type": "ui_group",
        "z": "",
        "name": "DI2",
        "tab": "",
        "order": 2,
        "disp": false,
        "width": "16",
        "collapse": false
    },
    {
        "id": "4bb9aed4.2578e",
        "type": "ui_group",
        "z": "",
        "name": "DI3",
        "tab": "",
        "order": 3,
        "disp": false,
        "width": "16",
        "collapse": false
    },
    {
        "id": "d3fbe506.7406b8",
        "type": "ui_group",
        "z": "",
        "name": "DI4",
        "tab": "",
        "order": 4,
        "disp": false,
        "width": "16",
        "collapse": false
    },
    {
        "id": "3d3a934b.b3ee7c",
        "type": "ui_group",
        "z": "",
        "name": "DI5",
        "tab": "",
        "order": 5,
        "disp": false,
        "width": "16",
        "collapse": false
    },
    {
        "id": "c80d0e4d.d011c",
        "type": "ui_group",
        "z": "",
        "name": "DI6",
        "tab": "",
        "order": 6,
        "disp": false,
        "width": "16",
        "collapse": false
    },
    {
        "id": "e7fbf625.b02718",
        "type": "ui_group",
        "z": "",
        "name": "DI7",
        "tab": "",
        "order": 7,
        "disp": false,
        "width": "16",
        "collapse": false
    },
    {
        "id": "bb3e2529.d656d8",
        "type": "ui_group",
        "z": "",
        "name": "DI8",
        "tab": "",
        "order": 8,
        "disp": false,
        "width": "16",
        "collapse": false
    },
    {
        "id": "2d5ff2e4.06bf4e",
        "type": "mongodb",
        "z": "",
        "hostname": "127.0.0.1",
        "port": "27017",
        "db": "water_station",
        "name": ""
    },
    {
        "id": "f8a3d63b.f7c1e8",
        "type": "websocket-listener",
        "z": "",
        "path": "/wt/config",
        "wholemsg": "false"
    },
    {
        "id": "2aa7422e.9f5ade",
        "type": "websocket-client",
        "z": "",
        "path": "ws://192.168.2.10:1880/test/temp",
        "tls": "",
        "wholemsg": "false"
    },
    {
        "id": "9044cdfa.d8e64",
        "type": "websocket-listener",
        "z": "",
        "path": "/wt/onload",
        "wholemsg": "false"
    },
    {
        "id": "9d876ca6.441c8",
        "type": "ui_tab",
        "z": "",
        "name": "water_m",
        "icon": "dashboard",
        "order": 1,
        "disabled": false,
        "hidden": false
    },
    {
        "id": "6ae6357b.be6e2c",
        "type": "ui_group",
        "z": "",
        "name": "temp",
        "tab": "9d876ca6.441c8",
        "order": 1,
        "disp": false,
        "width": "6",
        "collapse": false
    },
    {
        "id": "fcb6b264.d6a0e",
        "type": "websocket-listener",
        "z": "",
        "path": "/wt/usbexport",
        "wholemsg": "false"
    },
    {
        "id": "450009f9.5dd4c8",
        "type": "websocket in",
        "z": "71b25043.53434",
        "name": "",
        "server": "f8a3d63b.f7c1e8",
        "client": "",
        "x": 190,
        "y": 140,
        "wires": [
            [
                "211d9ddb.047252",
                "41f36c53.8d69a4"
            ]
        ]
    },
    {
        "id": "d1cdaf93.9947d",
        "type": "websocket out",
        "z": "71b25043.53434",
        "name": "",
        "server": "f8a3d63b.f7c1e8",
        "client": "",
        "x": 700,
        "y": 220,
        "wires": []
    },
    {
        "id": "e69dc2b.ad3dd4",
        "type": "mongodb out",
        "z": "71b25043.53434",
        "mongodb": "2d5ff2e4.06bf4e",
        "name": "",
        "collection": "config",
        "payonly": true,
        "upsert": false,
        "multi": false,
        "operation": "store",
        "x": 590,
        "y": 140,
        "wires": []
    },
    {
        "id": "211d9ddb.047252",
        "type": "json",
        "z": "71b25043.53434",
        "name": "",
        "property": "payload",
        "action": "",
        "pretty": false,
        "x": 330,
        "y": 140,
        "wires": [
            [
                "e69dc2b.ad3dd4",
                "ffae9aa2.0f45a8",
                "579a48b2.39d1a8"
            ]
        ]
    },
    {
        "id": "ffae9aa2.0f45a8",
        "type": "function",
        "z": "71b25043.53434",
        "name": "ok",
        "func": "msg.payload = {\n    \"result\": true\n}\nreturn msg;",
        "outputs": 1,
        "noerr": 0,
        "x": 490,
        "y": 220,
        "wires": [
            [
                "d1cdaf93.9947d"
            ]
        ]
    },
    {
        "id": "501b6124.6dc9d",
        "type": "mongodb in",
        "z": "71b25043.53434",
        "mongodb": "2d5ff2e4.06bf4e",
        "name": "",
        "collection": "config",
        "operation": "find",
        "x": 510,
        "y": 520,
        "wires": [
            [
                "64e56de2.8cf534",
                "70f8624c.83e88c"
            ]
        ]
    },
    {
        "id": "eb8308c0.318568",
        "type": "inject",
        "z": "71b25043.53434",
        "name": "",
        "topic": "",
        "payload": "",
        "payloadType": "date",
        "repeat": "",
        "crontab": "",
        "once": false,
        "onceDelay": 0.1,
        "x": 200,
        "y": 480,
        "wires": [
            [
                "501b6124.6dc9d"
            ]
        ]
    },
    {
        "id": "9aa53f43.25085",
        "type": "websocket in",
        "z": "71b25043.53434",
        "name": "",
        "server": "9044cdfa.d8e64",
        "client": "",
        "x": 140,
        "y": 260,
        "wires": [
            [
                "8c0e9259.60753",
                "3f0ebe2f.3de582"
            ]
        ]
    },
    {
        "id": "64e56de2.8cf534",
        "type": "websocket out",
        "z": "71b25043.53434",
        "name": "",
        "server": "9044cdfa.d8e64",
        "client": "",
        "x": 780,
        "y": 540,
        "wires": []
    },
    {
        "id": "8c0e9259.60753",
        "type": "json",
        "z": "71b25043.53434",
        "name": "",
        "property": "payload",
        "action": "",
        "pretty": false,
        "x": 250,
        "y": 360,
        "wires": [
            [
                "43a83487.6b8bbc"
            ]
        ]
    },
    {
        "id": "43a83487.6b8bbc",
        "type": "function",
        "z": "71b25043.53434",
        "name": "find",
        "func": "msg.payload = 1;\nreturn msg;",
        "outputs": 1,
        "noerr": 0,
        "x": 350,
        "y": 420,
        "wires": [
            [
                "501b6124.6dc9d"
            ]
        ]
    },
    {
        "id": "70f8624c.83e88c",
        "type": "debug",
        "z": "71b25043.53434",
        "name": "",
        "active": true,
        "tosidebar": true,
        "console": false,
        "tostatus": false,
        "complete": "payload",
        "x": 790,
        "y": 480,
        "wires": []
    },
    {
        "id": "579a48b2.39d1a8",
        "type": "debug",
        "z": "71b25043.53434",
        "name": "",
        "active": false,
        "tosidebar": true,
        "console": false,
        "tostatus": false,
        "complete": "payload",
        "x": 550,
        "y": 80,
        "wires": []
    },
    {
        "id": "3f0ebe2f.3de582",
        "type": "debug",
        "z": "71b25043.53434",
        "name": "",
        "active": false,
        "tosidebar": true,
        "console": false,
        "tostatus": false,
        "complete": "payload",
        "x": 330,
        "y": 280,
        "wires": []
    },
    {
        "id": "41f36c53.8d69a4",
        "type": "debug",
        "z": "71b25043.53434",
        "name": "",
        "active": true,
        "tosidebar": true,
        "console": false,
        "tostatus": false,
        "complete": "payload",
        "x": 330,
        "y": 40,
        "wires": []
    },
    {
        "id": "c4f1713e.4225b",
        "type": "inject",
        "z": "71b25043.53434",
        "name": "",
        "topic": "",
        "payload": "",
        "payloadType": "date",
        "repeat": "1",
        "crontab": "",
        "once": true,
        "onceDelay": 0.1,
        "x": 190,
        "y": 580,
        "wires": [
            [
                "8fdaf17b.cb8d6"
            ]
        ]
    },
    {
        "id": "9cc09e5e.df778",
        "type": "function",
        "z": "71b25043.53434",
        "name": "fc config gauge",
        "func": "var mongo_find = msg.payload;\nmsg.topic = mongo_find;\nvar pico_modbus = global.get('pico_modbus') || 0;\n\nglobal.set('pico_config',mongo_find);\n\nmsg.payload = pico_modbus.pH; // value is ph\n\nmsg.ui_control = {\n    min: mongo_find[0].gauge_ph[0].min, \n    max: mongo_find[0].gauge_ph[0].max\n    // seg1:mongo_find[0].gauge.ph[0].min, \n    // seg2:60\n}\nreturn msg;",
        "outputs": 1,
        "noerr": 0,
        "x": 460,
        "y": 760,
        "wires": [
            [
                "9e626d82.e91c8",
                "58b0abe4.2fb9f4"
            ]
        ]
    },
    {
        "id": "8fdaf17b.cb8d6",
        "type": "mongodb in",
        "z": "71b25043.53434",
        "mongodb": "2d5ff2e4.06bf4e",
        "name": "",
        "collection": "config",
        "operation": "find",
        "x": 310,
        "y": 640,
        "wires": [
            [
                "9cc09e5e.df778"
            ]
        ]
    },
    {
        "id": "58b0abe4.2fb9f4",
        "type": "ui_gauge",
        "z": "71b25043.53434",
        "name": "",
        "group": "6ae6357b.be6e2c",
        "order": 0,
        "width": 0,
        "height": 0,
        "gtype": "gage",
        "title": "{{msg.topic[0].gauge_ph[0].name}}",
        "label": "{{msg.topic[0].gauge_ph[0].unit}}",
        "format": "{{value}}",
        "min": "0",
        "max": "0",
        "colors": [
            "#ff0000",
            "#0adc1f",
            "#ff0000"
        ],
        "seg1": "6.9",
        "seg2": "7.2",
        "x": 610,
        "y": 820,
        "wires": []
    },
    {
        "id": "9e626d82.e91c8",
        "type": "debug",
        "z": "71b25043.53434",
        "name": "",
        "active": false,
        "tosidebar": true,
        "console": false,
        "tostatus": false,
        "complete": "topic",
        "x": 740,
        "y": 640,
        "wires": []
    },
    {
        "id": "b1f77c6f.fbc6a",
        "type": "inject",
        "z": "8c7ebdfc.ed42c",
        "name": "read modbus and insert mongodb",
        "topic": "",
        "payload": "",
        "payloadType": "date",
        "repeat": "3",
        "crontab": "",
        "once": true,
        "onceDelay": 0.1,
        "x": 220,
        "y": 80,
        "wires": [
            [
                "7d46e8ea.314858"
            ]
        ]
    },
    {
        "id": "7d46e8ea.314858",
        "type": "modbus-getter",
        "z": "8c7ebdfc.ed42c",
        "name": "",
        "showStatusActivities": false,
        "showErrors": false,
        "logIOActivities": false,
        "unitid": "1",
        "dataType": "InputRegister",
        "adr": "0",
        "quantity": "8",
        "server": "ac936f9.be03c9",
        "useIOFile": false,
        "ioFile": "",
        "useIOForPayload": false,
        "x": 380,
        "y": 160,
        "wires": [
            [
                "9ea4b35f.af639"
            ],
            []
        ]
    },
    {
        "id": "4c454702.9d2638",
        "type": "debug",
        "z": "8c7ebdfc.ed42c",
        "name": "pico_modbus_ai",
        "active": true,
        "tosidebar": true,
        "console": false,
        "tostatus": false,
        "complete": "payload",
        "x": 760,
        "y": 240,
        "wires": []
    },
    {
        "id": "9ea4b35f.af639",
        "type": "function",
        "z": "8c7ebdfc.ed42c",
        "name": "fc modbus",
        "func": "var raw = msg.payload;\nvar d = new Date();\nvar pico_config = global.get('pico_config') || 0;\n\n// set status\nvar ph_status = 0;\nvar do_status = 0;\nvar EC_status = 0;\nvar Turbidity_status = 0;\nvar NH4_N_status = 0;\nvar TDS_status = 0;\nvar Temperature_status = 0;\nvar Spare_status = 0;\n\nvar pico_modbus = {\n    \"pH\": raw[0],\n    \"pH_status\": ph_status,\n    \"DO\": raw[1],\n    \"DO_status\": do_status,\n    \"EC\": raw[2],\n    \"EC_status\": EC_status,\n    \"Turbidity\": raw[3],\n    \"Turbidity_status\": Turbidity_status,\n    \"NH4-N\": raw[4],\n    \"NH4-N_status\": NH4_N_status,\n    \"TDS\": raw[5],\n    \"TDS_status\": TDS_status,\n    \"Temperature\": raw[6],\n    \"Temperature_status\": Temperature_status,\n    \"Spare\": raw[7],\n    \"Spare_status\": Spare_status,\n    \"Salinity\": (32/10), // this is cal.\n    \"timestamp_is\":d\n}\nmsg.payload = pico_modbus;\nglobal.set('pico_modbus',pico_modbus);\nreturn msg;",
        "outputs": 1,
        "noerr": 0,
        "x": 590,
        "y": 180,
        "wires": [
            [
                "4c454702.9d2638",
                "a92cb8f7.f11f38"
            ]
        ]
    },
    {
        "id": "a92cb8f7.f11f38",
        "type": "mongodb out",
        "z": "8c7ebdfc.ed42c",
        "mongodb": "2d5ff2e4.06bf4e",
        "name": "",
        "collection": "water_measurement",
        "payonly": true,
        "upsert": false,
        "multi": false,
        "operation": "store",
        "x": 790,
        "y": 100,
        "wires": []
    },
    {
        "id": "8ae0250f.1c7828",
        "type": "mongodb in",
        "z": "8c7ebdfc.ed42c",
        "mongodb": "2d5ff2e4.06bf4e",
        "name": "",
        "collection": "water_measurement",
        "operation": "find",
        "x": 410,
        "y": 400,
        "wires": [
            [
                "c6fe6d73.46e22"
            ]
        ]
    },
    {
        "id": "f59887b7.d96c78",
        "type": "inject",
        "z": "8c7ebdfc.ed42c",
        "name": "read",
        "topic": "",
        "payload": "",
        "payloadType": "date",
        "repeat": "",
        "crontab": "",
        "once": false,
        "onceDelay": 0.1,
        "x": 150,
        "y": 320,
        "wires": [
            [
                "8ae0250f.1c7828"
            ]
        ]
    },
    {
        "id": "c6fe6d73.46e22",
        "type": "debug",
        "z": "8c7ebdfc.ed42c",
        "name": "pico_find_mongo",
        "active": true,
        "tosidebar": true,
        "console": false,
        "tostatus": false,
        "complete": "payload",
        "x": 630,
        "y": 480,
        "wires": []
    },
    {
        "id": "a1e7079c.e25738",
        "type": "inject",
        "z": "a77ea316.764ff",
        "name": "",
        "topic": "",
        "payload": "",
        "payloadType": "date",
        "repeat": "",
        "crontab": "",
        "once": false,
        "onceDelay": 0.1,
        "x": 200,
        "y": 80,
        "wires": [
            [
                "9d9f97cc.04f308"
            ]
        ]
    },
    {
        "id": "9d9f97cc.04f308",
        "type": "function",
        "z": "a77ea316.764ff",
        "name": "fc line notify",
        "func": "var pico_config = msg.payload;\nvar pico_modbus = global.get('pico_modbus') || 0;\nvar pico_config = global.get('pico_config') || 0;\nvar message = \"\";\nif (pico_config[0].alam_pH_lo < pico_modbus.pH){\n    message = \"???????? pH ??????????? [LO]\"\n    msg.headers = {'content-type':'application/x-www-form-urlencoded',\n        'Authorization':'Bearer 9YFwvp3ABkbtDzIcPHn0VToNWV87KKhK9i0oTYgpRCC'\n    };\n    msg.payload = {\n        \"message\":message\n    }\n    return msg;\n}\nif (pico_config[0].alam_pH_hihi < pico_modbus.pH){\n    message = \"???????? pH ??????????? [HIHI]\"\n    msg.headers = {'content-type':'application/x-www-form-urlencoded',\n        'Authorization':'Bearer 9YFwvp3ABkbtDzIcPHn0VToNWV87KKhK9i0oTYgpRCC'\n    };\n    msg.payload = message;\n    return msg;\n}\n// msg.payload = {\n//     \"pico_config\":pico_config,\n//     \"pico_modbus\":pico_modbus,\n// }",
        "outputs": 1,
        "noerr": 0,
        "x": 370,
        "y": 160,
        "wires": [
            [
                "a52c657e.5a41b8",
                "5c3b0b0c.ebb134"
            ]
        ]
    },
    {
        "id": "a52c657e.5a41b8",
        "type": "debug",
        "z": "a77ea316.764ff",
        "name": "",
        "active": true,
        "tosidebar": true,
        "console": false,
        "tostatus": false,
        "complete": "payload",
        "x": 670,
        "y": 120,
        "wires": []
    },
    {
        "id": "fb812ea5.1e10f",
        "type": "exec",
        "z": "926eacb5.ddf63",
        "command": "mongoexport --db water_station --collection water_measurement --csv --fields  timestamp_is,pH,DO,EC,Turbidity,NH4-H,TDS,Temperature,Spare,Salinity --out /media/pi/206B-E9BD1/pico_export_watermeasurement.csv",
        "addpay": false,
        "append": "",
        "useSpawn": "false",
        "timer": "20",
        "oldrc": false,
        "name": "",
        "x": 1010,
        "y": 140,
        "wires": [
            [],
            [],
            [
                "5e9eae7a.6cbf7",
                "8bd1b6ab.33a258"
            ]
        ]
    },
    {
        "id": "99fa1ed5.6f042",
        "type": "inject",
        "z": "926eacb5.ddf63",
        "name": "read",
        "topic": "",
        "payload": "",
        "payloadType": "date",
        "repeat": "",
        "crontab": "",
        "once": false,
        "onceDelay": 0.1,
        "x": 230,
        "y": 60,
        "wires": [
            [
                "fb812ea5.1e10f"
            ]
        ]
    },
    {
        "id": "5e9eae7a.6cbf7",
        "type": "debug",
        "z": "926eacb5.ddf63",
        "name": "export debug",
        "active": true,
        "tosidebar": true,
        "console": false,
        "tostatus": false,
        "complete": "payload",
        "x": 550,
        "y": 220,
        "wires": []
    },
    {
        "id": "a2d12e68.29767",
        "type": "websocket out",
        "z": "926eacb5.ddf63",
        "name": "",
        "server": "fcb6b264.d6a0e",
        "client": "",
        "x": 1210,
        "y": 360,
        "wires": []
    },
    {
        "id": "8bd1b6ab.33a258",
        "type": "function",
        "z": "926eacb5.ddf63",
        "name": "fc status export",
        "func": "msg.payload = {\n    \"usb_tranf\": msg.payload,\n}\nreturn msg;",
        "outputs": 1,
        "noerr": 0,
        "x": 1140,
        "y": 260,
        "wires": [
            [
                "a2d12e68.29767"
            ]
        ]
    },
    {
        "id": "2bde29c1.8b3a86",
        "type": "websocket in",
        "z": "926eacb5.ddf63",
        "name": "",
        "server": "fcb6b264.d6a0e",
        "client": "",
        "x": 170,
        "y": 220,
        "wires": [
            [
                "fb812ea5.1e10f"
            ]
        ]
    },
    {
        "id": "5c3b0b0c.ebb134",
        "type": "http request",
        "z": "a77ea316.764ff",
        "name": "",
        "method": "POST",
        "ret": "txt",
        "url": "https://notify-api.line.me/api/notify",
        "tls": "",
        "x": 610,
        "y": 240,
        "wires": [
            [
                "a52c657e.5a41b8"
            ]
        ]
    }
]